…
``` r
# CV using modelr
cv = crossv_mc(children, 100)

# Using the training and testing datasets, I will fit my candidate models and assess prediction accuracy, using `mutate`, `map`, and `map2`
cv %>% pull(train) %>% .[[1]] %>% as_tibble
```

    ## # A tibble: 3,473 x 20
    ##    babysex bhead blength   bwt delwt fincome frace gaweeks malform menarche
    ##    <fct>   <int>   <int> <int> <int>   <int> <fct>   <dbl> <fct>      <int>
    ##  1 Female     34      51  3629   177      35 White    39.9 Absent        13
    ##  2 Male       34      48  3062   156      65 Black    25.9 Absent        14
    ##  3 Male       34      52  3062   157      55 White    40   Absent        14
    ##  4 Female     34      52  3374   156       5 White    41.6 Absent        13
    ##  5 Male       33      52  3374   129      55 White    40.7 Absent        12
    ##  6 Female     33      46  2523   126      96 Black    40.3 Absent        14
    ##  7 Female     33      49  2778   140       5 White    37.4 Absent        12
    ##  8 Male       36      52  3515   146      85 White    40.3 Absent        11
    ##  9 Male       33      50  3459   169      75 Black    40.7 Absent        12
    ## 10 Male       35      51  3459   146      55 White    39.4 Absent        12
    ## # ... with 3,463 more rows, and 10 more variables: mheight <int>,
    ## #   momage <int>, mrace <fct>, parity <int>, pnumlbw <int>, pnumsga <int>,
    ## #   ppbmi <dbl>, ppwt <int>, smoken <dbl>, wtgain <int>

``` r
cv %>% pull(test) %>% .[[1]] %>% as_tibble
```

    ## # A tibble: 869 x 20
    ##    babysex bhead blength   bwt delwt fincome frace gaweeks malform menarche
    ##    <fct>   <int>   <int> <int> <int>   <int> <fct>   <dbl> <fct>      <int>
    ##  1 Female     36      50  3345   148      85 White    39.9 Absent        12
    ##  2 Female     35      51  3317   130      55 White    43.4 Absent        13
    ##  3 Male       36      53  3629   147      75 White    41.3 Absent        11
    ##  4 Female     35      57  3374   147      45 White    39.6 Absent        12
    ##  5 Male       34      52  3203   134      25 White    41.1 Absent        14
    ##  6 Male       34      49  3175   148      96 Black    39.7 Absent        10
    ##  7 Female     36      56  3685   170      95 White    40.3 Absent        12
    ##  8 Male       35      53  3175   130      45 White    40.4 Absent        13
    ##  9 Female     34      54  3345   130      95 White    42.1 Absent        10
    ## 10 Female     34      51  3232   155      55 White    41.6 Absent        15
    ## # ... with 859 more rows, and 10 more variables: mheight <int>,
    ## #   momage <int>, mrace <fct>, parity <int>, pnumlbw <int>, pnumsga <int>,
    ## #   ppbmi <dbl>, ppwt <int>, smoken <dbl>, wtgain <int>
…
